…
    ## ── Conflicts ────────────────────────────────────────────────────────── tidyverse_conflicts() ──
    ## ✖ dplyr::filter() masks stats::filter()
    ## ✖ dplyr::lag()    masks stats::lag()

    ## 
    ## Attaching package: 'GGally'

    ## The following object is masked from 'package:dplyr':
    ## 
    ##     nasa

    ## # A tibble: 1,974 x 221
    ##     year    id           wrkstat       wrkslf     wrkgvt       marital
    ##    <dbl> <dbl>            <fctr>       <fctr>     <fctr>        <fctr>
    ##  1  2012     1 WORKING PART TIME SOMEONE ELSE    PRIVATE Never married
    ##  2  2012     2 WORKING PART TIME SOMEONE ELSE    PRIVATE Never married
    ##  3  2012     3 WORKING FULL TIME SOMEONE ELSE    PRIVATE       Married
    ##  4  2012     4              <NA> SOMEONE ELSE    PRIVATE       Married
    ##  5  2012     5           RETIRED SOMEONE ELSE GOVERNMENT     Separated
    ##  6  2012     6              <NA> SOMEONE ELSE    PRIVATE       Widowed
    ##  7  2012     7     KEEPING HOUSE SOMEONE ELSE    PRIVATE       Married
    ##  8  2012     8     KEEPING HOUSE         <NA>       <NA>     Separated
    ##  9  2012     9     KEEPING HOUSE         <NA>       <NA>       Married
    ## 10  2012    10 WORKING FULL TIME SOMEONE ELSE    PRIVATE Never married
    ## # ... with 1,964 more rows, and 215 more variables: sibs <dbl>,
    ## #   childs <dbl>, age <dbl>, educ <fctr>, degree <fctr>, sex <fctr>,
    ## #   race <fctr>, polviews <fctr>, partyid <fctr>, mobile16 <fctr>,
    ## #   born <fctr>, income06 <fctr>, rincom06 <fctr>, region <fctr>,
    ## #   size <dbl>, vote08_coded <fctr>, pres08 <fctr>, natspac <fctr>,
    ## #   natenvir <fctr>, natheal <fctr>, natcity <fctr>, natcrime <fctr>,
    ## #   natdrug <fctr>, nateduc <fctr>, natrace <fctr>, natarms <fctr>,
    ## #   nataid <fctr>, natfare <fctr>, natroad <fctr>, natsoc <fctr>,
    ## #   natmass <fctr>, natpark <fctr>, natchld <fctr>, natsci <fctr>,
…
